{
  "type": "service_account",
  "project_id": "reservandonos-booking",
  "private_key_id": "3041602b8052cf6b9445ba70b9336daa9a99d195",
  "private_key": "-----BEGIN PRIVATE KEY-----\nMIIEvAIBADANBgkqhkiG9w0BAQEFAASCBKYwggSiAgEAAoIBAQC+8grYyfeyTPy0\nmX63v0ZcLq8pGFpPeKePHC7FI+B8A8PgmUiGzSMBngV7U770DLHxhWCgtoX+3She\nS4g6Ba+6y4WiDWeWqdUFdu5H7mjo4hx+OwBc9GbURe7z9kUfeQ2c3dcVVWlbxDfc\nogX/uOcutku2rjkSzUEqjV+3R0uDGLiuzHIlY1aBg9EeTCbchAyK05Xa2JJONSH6\nx3j8Ui9lfL0Uue1rfTjlCvC4wu+lRHrc/5M+vC433vHhAuexcPsVyZ4xvRuItyoB\n9q8tZAL1lkuzKXnwtIwj0Yw8PX+jIvpmbd3erwA5of47DOyzFBtk3xchfBL7EGVm\nlqcCKy0VAgMBAAECgf9bKmOPBrBffHm2qTWFs/A1cBSlrTUUGZLPb7Dk418n1tLo\n6S83ikVmoy7MSmns7Qt83D0jZxk1uQSwAL0syC0qawGFgJsXpYobHXNJ5K0yJmW6\nDaATHp1uR8bxs91kHdCcN6vK1Tb4dnyScg8OFNFjQewS477QjLrKip3uTG1YetpF\nxVEp6ZQp3ULbWKoxPP6/VRYCWefm9U8XxKp0xQ7Y9Sb9xf5MKnqYtbbD3HPApx6G\nGxUAGoK0Wnv0W+DnM4VJ6kh3Fzb7Y570TH26AkohiDtBWiicKHX6XA96Jqbg9YCd\nnk1K7HC+Wzb9kmAgZSQSfx8Zvj0203pFoRHtptECgYEA/ShxUowuStuFchnDFXPG\n7iP3TdmzhyI5A/kaMP3/7X+zyFl5CHEqdSkgwhLmk744oUYzwjWfry/ImKaUtwFA\nbs+RCTVzFa14FjWvb4GKWJ0VJPkrrQkB934GojTf8D8hRENpAOkuCEcn3w7qQf7k\nlnaoUiuojWwb56iVFxVNzA0CgYEAwRbOOeqZ1VGrCUDDkoSlTmn7kjavXFM1FQuz\nsG/Xs7Rv8SAiLRaM7Ppy0HMmo1od6+D2uLoVzx5EywRNmYde+d+hucs9FEUuAsyK\nq90R5XWIrL24MnhopnOFVfMe1kEe5uoe1ejw0c0z2qlkoyX1E2wRzkbv2Nriqtpw\nO6VIuykCgYEAx3b3GvhSfS7LzSQZPqzTX808zL0sI9xGGihKh7GJ1eJZkBFXONyZ\nfGikY+WqgVxOmFuM6od/wvOeVRBjenHlB6pJ93yCqeDdDnrMOMpTbBCQmWouDI9d\nWliU93c7vrqvBm8qq8oON/2An9LLpqYkC52AcAXwL0WwEu4UUnS5sH0CgYAiKXHF\nJ2+eITvcgDvZ0WQZ0oBy5v/xmrsahR5+idsk7Tic9a12QrYeO1VS8fyVDB2dHQkp\nt6qiIV3UeWdtUVkJZnqLj5y32GGCl0O1koBXE4th3JMZQtppEKk3grMi/xSDkEpy\nWCs7Q034Ut3+S3nnvMgNsdk/icJurgULWHvcuQKBgQDB6/Xv/4py/uKEu29ZoGeZ\nqh+X24PAjWIk6JHc0SRaCMT7SQ5WKckSfB7nGQkmu01P0CGECNkEAg9lA8GM7fCX\nWg5T+BqhQ2u+Vj7HOky38lGSJdJcpvTicVT+G4aLOMkI70TmYX3FwgmJiF5vNT+Y\n3MRgUvqGFFAUIoFYf3uaJg==\n-----END PRIVATE KEY-----\n",
  "client_email": "reservandonos-google@reservandonos-booking.iam.gserviceaccount.com",
  "client_id": "105038084445391112015",
  "auth_uri": "https://accounts.google.com/o/oauth2/auth",
  "token_uri": "https://oauth2.googleapis.com/token",
  "auth_provider_x509_cert_url": "https://www.googleapis.com/oauth2/v1/certs",
  "client_x509_cert_url": "https://www.googleapis.com/robot/v1/metadata/x509/reservandonos-google%40reservandonos-booking.iam.gserviceaccount.com"
}
