{
    "Template": {
      "TemplateName": "CancellationPolicyConfirmed",
      "SubjectPart": "Tu reserva en {{place}} con pol\u00EDtica de cancelaci\u00F3n se ha confirmado",
      "HtmlPart": "<div style=\"text-align: center;\">\r\n<div style=\"text-align:center;display:inline-block;margin:32px 0;width:100%;max-width:516px;min-width:220px;font-family:'Google Sans',Roboto,RobotoDraft,Helvetica,Arial,sans-serif;\">\r\n<div style=\"text-align: center\">\r\n<img src=\"{{logoImage}}\" style=\"width: 250px\" alt=\"logo {{place}}\">\r\n<\/div>\r\n<p style=\"color:#767676\">Hola {{name}}, gracias por reservar en {{place}}, se ha confirmado tu reservaci\u00F3n.<\/p>\r\n      <div style=\"font-size: 0.8em;\">\r\n        <p>Recuerda que en tu reserva aplica una pol\u00EDtica de cancelaci\u00F3n.<\/p>\r\n        <p>Se te har\u00E1 un cargo de ${{amount}} si no llegas a tu reserva.<\/p>\r\n        <p>En caso de no poder asistir, cancelar con 72 horas de anticipaci\u00F3n para que no se te haga ning\u00FAn cargo.<\/p>\r\n      <\/div>\r\n      <br>\r\n      <div style=\"border:thin solid #dadce0;border-radius:8px;padding:20px;margin:0 10%\">\r\n        <div style=\"font-weight:bold;margin-bottom: 10px\">Detalles de la reservaci\u00F3n<\/div>\r\n        <div>Lugar: {{place}}<\/div>\r\n        <div>Fecha: {{date}}<\/div>\r\n        <div>Hora: {{time}}<\/div>\r\n        <div>Personas: {{peopleCount}}<\/div>\r\n        <div>\u00C1rea: {{smokeArea}}<\/div>\r\n        <div>Zona: {{zone}}<\/div>\r\n        <div>Comentarios: {{notes}}<\/div>\r\n      <\/div>\r\n      <p style=\"color:#767676\">Para cualquier duda o aclaraci\u00F3n por favor comun\u00EDcate al {{phone}}.<\/p>\r\n      <br>\r\n      <div style=\"line-height: 0.2em; font-size: small;\">\r\n        <p>\u00BFYa no deseas recibir estos correos?<\/p>\r\n        <a href=\"{{unsubscribe}}\">Darse de baja<\/a>\r\n      <\/div>\r\n    <\/div>\r\n  <\/div>",
      "TextPart": "Hola {{name}}, gracias por reservar en {{place}}.\r\nSe cobrar\u00E1 ${{amount}} si no llegas a tu reserva.\r\nDetalles de la reservaci\u00F3n\r\nLugar: {{place}}\r\nFecha: {{date}}\r\nHora: {{time}}\r\nPersonas: {{peopleCount}}\r\n\u00C1rea: {{smokeArea}}\r\nZona: {{zone}}\r\nForma de la mesa: {{tableType}}\r\nAltura de la mesa: {{tableHeight}}\r\nComentarios: {{notes}}\r\nPara cualquier duda o aclaraci\u00F3n por favor comun\u00EDcate al {{phone}}."
    }
  }