{
  "Template": {
    "TemplateName": "ReservationOnlineReconfirm2",
    "SubjectPart": "CONFIRMA tu asistencia a {{place}}",
    "HtmlPart": "<!DOCTYPE html>\r\n<html lang=\"es\">\r\n\r\n<head>\r\n    <meta charset=\"UTF-8\">\r\n    <meta name=\"viewport\" content=\"width=device-width, initial-scale=1.0\">\r\n    <title>Confirma tu asistencia<\/title>\r\n<\/head>\r\n\r\n<body style=\"margin: 0; padding: 0;\">\r\n    <table cellpadding=\"0\" cellspacing=\"0\" width=\"100%\" bgcolor=\"#F1F2F4\">\r\n        <tr>\r\n            <td>\r\n                <table align=\"center\" cellpadding=\"0\" cellspacing=\"0\" width=\"600\"\r\n                    style=\"border-collapse: collapse; margin-bottom: 32px;\">\r\n                    <tr style=\"background-color: {{primaryColor}};\">\r\n                        <td style=\"padding: 32px 0 32px 0;\" align=\"center\">\r\n                            <a href=\"{{website}}\">\r\n                                <img src=\"{{logoImage}}\" alt=\"{{place}}\" style=\"display: block;\">\r\n                            <\/a>\r\n                        <\/td>\r\n                    <\/tr>\r\n                    <tr>\r\n                        <td bgcolor=\"#FFFFFF\" style=\"padding: 30px;\">\r\n                            <table cellpadding=\"0\" cellspacing=\"0\" width=\"100%\"\r\n                                style=\"font-family: Arial, Helvetica, sans-serif;\">\r\n                                <tr>\r\n                                    <td style=\"text-align: center;vertical-align: top;padding-bottom: 8px;\" valign=\"top\"\r\n                                        align=\"center\">\r\n                                        <span\r\n                                            style=\"line-height: 36px; text-align: center; font-size: 28px; color: rgb(45, 51, 63);\">Tienes una reserva para hoy<\/span>\r\n                                    <\/td>\r\n                                <\/tr>\r\n                                <tr>\r\n                                    <td style=\"text-align: center;vertical-align: top;padding-bottom: 8px;\" valign=\"top\" align=\"center\">\r\n                                        <a href=\"{{website}}\" style=\"text-decoration: none;color: #DA3743;\">\r\n                                            <span style=\"font-size: 18px;font-weight: normal;color: rgb(218, 55, 67);line-height: 24px;text-align: center;\" >{{place}}<\/span>\r\n                                        <\/a>\r\n                                    <\/td>\r\n                                <\/tr>\r\n                                <tr>\r\n                                    <td style=\"text-align: center;vertical-align: top;padding-bottom: 16px;\"\r\n                                        valign=\"top\" align=\"center\">\r\n                                        <span\r\n                                            style=\"font-size: 16px;font-weight: normal;color: rgb(45, 51, 63);line-height: 24px;text-align: center;\">Por\r\n                                            favor, confirma tu asistencia<\/span>\r\n                                    <\/td>\r\n                                <\/tr>\r\n                                <tr>\r\n                                    <td style=\"text-align: center;vertical-align: top;padding-bottom: 8px;\" valign=\"top\"\r\n                                        align=\"center\">\r\n                                        <a href=\"https:\/\/bookercontrol.com\/#\/reservations\/{{urlData}}\/confirm\" style=\"background-color:#e94363;color:#fff;text-decoration:none;padding:10px 20px;margin:10px;display:inline-block;border-radius:5px\">Confirmar reservaci\u00F3n<\/a>\r\n                                    <\/td>\r\n                                <\/tr>\r\n                                <tr>\r\n                                    <td style=\"text-align: center;vertical-align: top;padding-bottom: 8px;\" valign=\"top\"\r\n                                        align=\"center\">\r\n                                        <a href=\"https:\/\/bookercontrol.com\/#\/reservations\/{{urlData}}\/cancel\" style=\"background-color:#b7b7b7;color:#fff;text-decoration:none;padding:10px 20px;margin:10px;display:inline-block;border-radius:5px\">Cancelar reservaci\u00F3n<\/a>\r\n                                    <\/td>\r\n                                <\/tr>\r\n                                <tr>\r\n                                    <td style=\"text-align: center;vertical-align: top;padding-bottom: 8px;\" valign=\"top\"\r\n                                        align=\"center\">\r\n                                        <span\r\n                                            style=\"font-size: 16px;color: rgb(45, 51, 63);line-height: 24px;text-align: center;\">Mesa\r\n                                            para {{peopleCount}}, {{date}} a las {{time}}<\/span>\r\n                                    <\/td>\r\n                                <\/tr>\r\n                                <tr>\r\n                                    <td style=\"text-align: center; vertical-align: top;\" valign=\"top\" align=\"center\">\r\n                                        <span\r\n                                            style=\"font-size: 14px;color: rgb(45, 51, 63);line-height: 24px;text-align: center;\">\r\n                                            <span>A nombre de<\/span>: <span>{{name}}<\/span>\r\n                                        <\/span>\r\n                                    <\/td>\r\n                                <\/tr>\r\n                                <tr>\r\n                                    <td style=\"text-align: center;vertical-align: top;padding-bottom: 8px;\" valign=\"top\"\r\n                                        align=\"center\">\r\n                                        <span\r\n                                            style=\"font-size: 12px;line-height: 17px;text-align: center;\">{{address}}<\/span>\r\n                                    <\/td>\r\n                                <\/tr>\r\n                                <tr>\r\n                                    <td style=\"padding: 0px;text-align: center;vertical-align: top;\" valign=\"top\"\r\n                                        align=\"center\">\r\n                                        <a href=\"{{website}}\" style=\"text-decoration: none;color: #DA3743;\">\r\n                                            <span\r\n                                                style=\"font-size: 14px;font-weight: normal;color: rgb(218, 55, 67);line-height: 24px;text-align: center;\">Visita nuestra p\u00E1gina<\/span>\r\n                                        <\/a>\r\n                                    <\/td>\r\n                                <\/tr>\r\n                            <\/table>\r\n                        <\/td>\r\n                    <\/tr>\r\n                    <tr>\r\n                        <td style=\"height: 32px;\">&nbsp;<\/td>\r\n                    <\/tr>\r\n                    <tr>\r\n                        <td bgcolor=\"#FFFFFF\" style=\"padding: 30px;\">\r\n                            <table style=\"font-family: Arial, Helvetica, sans-serif;\">\r\n                                <tr>\r\n                                    <td style=\"vertical-align: top;\" valign=\"top\">\r\n                                        <span\r\n                                            style=\"font-size: 18px;text-align: left;color: rgb(35, 123, 152);line-height: 24px;\">Informaci\u00F3n\r\n                                            importante<\/span>\r\n                                    <\/td>\r\n                                <\/tr>\r\n                                <tr>\r\n                                    <td style=\"vertical-align: top; line-height: 20px;\">\r\n                                        <span style=\"font-size: 14px;\">Solo cuenta con 10 minutos para conservar su\r\n                                            reserva. Si va con un mayor tiempo de atraso, por favor ll\u00E1menos.<br>Es\r\n                                            posible que lo contactemos por esta reservaci\u00F3n, por lo que le pedimos que\r\n                                            su correo electr\u00F3nico y n\u00FAmero de tel\u00E9fono est\u00E9n actualizados<\/span>\r\n                                    <\/td>\r\n                                <\/tr>\r\n                            <\/table>\r\n                        <\/td>\r\n                    <\/tr>\r\n                    <tr>\r\n                        <td style=\"height: 32px;\">&nbsp;<\/td>\r\n                    <\/tr>\r\n                    <tr>\r\n                        <td bgcolor=\"#FFFFFF\" style=\"padding: 30px;\">\r\n                            <table style=\"font-family: Arial, Helvetica, sans-serif;\">\r\n                                <tr>\r\n                                    <td style=\"font-size: 14px;\" width=\"75%\">\u00BFDudas? Ll\u00E1manos al {{phone}}<\/td>\r\n                                    <td align=\"right\" width=\"25%\">\r\n                                        <table border=\"0\" cellpadding=\"0\" cellspacing=\"0\">\r\n                                            <tr>\r\n                                                {{#if facebook}}\r\n                                                <td>\r\n                                                    <a href=\"{{facebook}}\" style=\"color: #ffffff;\">\r\n                                                        <img src=\"https:\/\/reservandonos-cdn.s3-us-west-2.amazonaws.com\/icons\/icon-facebook.png\"\r\n                                                            alt=\"Facebook\" width=\"32\" height=\"32\"\r\n                                                            style=\"display: block;\" border=\"0\" \/>\r\n                                                    <\/a>\r\n                                                <\/td>\r\n                                                <td style=\"font-size: 0; line-height: 0;\" width=\"20\">&nbsp;<\/td>\r\n                                                {{\/if}}\r\n                                                {{#if instagram}}\r\n                                                <td\r\n                                                    style=\"font-family: Arial, sans-serif; font-size: 12px; font-weight: bold;\">\r\n                                                    <a href=\"{{instagram}}\" style=\"color: #ffffff;\">\r\n                                                        <img src=\"https:\/\/reservandonos-cdn.s3-us-west-2.amazonaws.com\/icons\/icon-instagram.png\"\r\n                                                            alt=\"Instagram\" width=\"32\" height=\"32\"\r\n                                                            style=\"display: block;\" border=\"0\" \/>\r\n                                                    <\/a>\r\n                                                <\/td>\r\n                                                <td style=\"font-size: 0; line-height: 0;\" width=\"20\">&nbsp;<\/td>\r\n                                                {{\/if}}\r\n                                                {{#if twitter}}\r\n                                                <td\r\n                                                    style=\"font-family: Arial, sans-serif; font-size: 12px; font-weight: bold;\">\r\n                                                    <a href=\"{{twitter}}\" style=\"color: #ffffff;\">\r\n                                                        <img src=\"https:\/\/reservandonos-cdn.s3-us-west-2.amazonaws.com\/icons\/icon-twitter.png\"\r\n                                                            alt=\"Twitter\" width=\"32\" height=\"32\" style=\"display: block;\"\r\n                                                            border=\"0\" \/>\r\n                                                    <\/a>\r\n                                                <\/td>\r\n                                                {{\/if}}\r\n                                            <\/tr>\r\n                                        <\/table>\r\n                                    <\/td>\r\n                                <\/tr>\r\n                            <\/table>\r\n                        <\/td>\r\n                    <\/tr>\r\n                <\/table>\r\n            <\/td>\r\n        <\/tr>\r\n    <\/table>\r\n<\/body>\r\n\r\n<\/html>",
    "TextPart": "Hola {{name}}, gracias por reservar en {{place}}, por favor confirma tu asistencia.\r\nDetalles de la reservación\r\nLugar: {{place}}\r\nFecha: {{date}}\r\nHora: {{time}}\r\nPersonas: {{peopleCount}}\r\nArea: {{smokeArea}}\r\nZona: {{zone}}\r\nForma de la mesa: {{tableType}}\r\nAltura de la mesa: {{tableHeight}}\r\nComentarios: {{notes}}\r\n Para confirmar su asistencia entra en el siguiente enlace. https://sistema.reservandonos.com/#/reservations/{{urlData}}/confirm \r\n si desea cancelar la reserva entra en el siguiente enlace https://sistema.reservandonos.com/#/reservations/{{urlData}}/cancel \r\n Para cualquier duda o aclaración por favor comunícate al {{phone}}."
  }
}
