{
  "Template": {
    "TemplateName": "ReservationPayment",
    "SubjectPart": "CONFIRMA tu reserva en {{place}} con una tarjeta",
    "HtmlPart": "<div style=\"text-align: center;\"><div style=\"text-align:center;display:inline-block;margin:32px 0;width:100%;max-width:516px;min-width:220px;font-family:'Google Sans',Roboto,RobotoDraft,Helvetica,Arial,sans-serif;\"><div style=\"text-align: center\"> <img src=\"{{logoImage}}\" style=\"width: 250px\"></div><p style=\"color:#767676\">Hola {{name}}, gracias por reservar en {{place}}, por favor ingresa los datos de tu tarjeta de cr&#233;dito o d&#233;bito para confirmar tu reservaci&#243;n en el siguiente enlace.</p><div> <a href=\"https://sistema.reservandonos.com/#/reservations/{{urlData}}/payment\" style=\"background-color:#e94363;color:#fff;text-decoration:none;padding:10px 20px;margin:10px;display:inline-block;border-radius:5px\">Ingresar tarjeta</a></div><p style=\"color:#767676\">Para cualquier duda o aclaraci&#243;n por favor comun&#237;cate al siguiente n&#250;mero {{phone}}.</p></div></div>",
    "TextPart": "Hola {{name}}, gracias por reservar en {{place}}, por favor ingresa los datos de tu tarjeta de crédito o débito para confirmar tu reservación en el siguiente enlace.\r\nIngresar tarjeta >>> https://sistema.reservandonos.com/#/reservations/{{urlData}}/payment \r\nPara cualquier duda o aclaración por favor comunícate al siguiente número{{phone}}."
  }
}
