
{
    "Template": {
      "TemplateName": "ReservationOnlineCancelled",
      "SubjectPart": "Tu reserva en {{place}} ha sido cancelada",
      "HtmlPart": "<!DOCTYPE html>\r\n<html lang=\"es\">\r\n\r\n<head>\r\n    <meta charset=\"UTF-8\">\r\n    <meta name=\"viewport\" content=\"width=device-width, initial-scale=1.0\">\r\n    <title>Tu reserva ha sido cancelada<\/title>\r\n<\/head>\r\n\r\n<body style=\"margin: 0; padding: 0;\">\r\n    <table cellpadding=\"0\" cellspacing=\"0\" width=\"100%\" bgcolor=\"#F1F2F4\">\r\n        <tr>\r\n            <td>\r\n                <table align=\"center\" cellpadding=\"0\" cellspacing=\"0\" width=\"600\"\r\n                    style=\"border-collapse: collapse; margin-bottom: 32px;\">\r\n                    <tr style=\"background-color: {{ primaryColor }};\">\r\n                        <td style=\"padding: 32px 0 32px 0;\" align=\"center\">\r\n                            <a href=\"{{website}}\">\r\n                                <img src=\"{{logoImage}}\"\r\n                                    alt=\"logo {{place}}\" style=\"display: block;\">\r\n                            <\/a>\r\n                        <\/td>\r\n                    <\/tr>\r\n                    <tr>\r\n                        <td bgcolor=\"#FFFFFF\" style=\"padding: 30px;\">\r\n                            <table cellpadding=\"0\" cellspacing=\"0\" width=\"100%\" style=\"font-family: Arial, Helvetica, sans-serif;\">\r\n                                <tr>\r\n                                    <td style=\"text-align: center;vertical-align: top;padding-bottom: 8px;\" valign=\"top\" align=\"center\">\r\n                                        <span style=\"line-height: 36px; text-align: center; font-size: 28px; color: rgb(45, 51, 63);\">Reserva cancelada<\/span>\r\n                                    <\/td>\r\n                                <\/tr>\r\n                                <tr>\r\n                                    <td style=\"text-align: center;vertical-align: top;padding-bottom: 16px;\" valign=\"top\" align=\"center\">\r\n                                        <span style=\"font-size: 16px;font-weight: normal;color: rgb(45, 51, 63);line-height: 24px;text-align: center;\">Tu reserva fue cancelada exitosamente.<br>Si deseas hacer una nueva reserva, por favor pornte en cont\u00E1cto con nosotros.<\/span>\r\n                                    <\/td>\r\n                                <\/tr>\r\n                                <tr>\r\n                                    <td style=\"text-align: center;vertical-align: top;padding-bottom: 8px;\" valign=\"top\" align=\"center\">\r\n                                        <a href=\"{{website}}\" style=\"text-decoration: none;color: #DA3743;\">\r\n                                            <span style=\"font-size: 18px;font-weight: normal;color: rgb(218, 55, 67);line-height: 24px;text-align: center;\" >{{place}}<\/span>\r\n                                        <\/a>\r\n                                    <\/td>\r\n                                <\/tr>\r\n                                <tr>\r\n                                    <td style=\"text-align: center;vertical-align: top;padding-bottom: 8px;\" valign=\"top\" align=\"center\">\r\n                                        <span style=\"font-size: 16px;color: rgb(45, 51, 63);line-height: 24px;text-align: center;\">Mesa para {{peopleCount}}, {{date}} a las {{time}}<\/span>\r\n                                    <\/td>\r\n                                <\/tr>\r\n                                <tr>\r\n                                    <td style=\"text-align: center; vertical-align: top;\" valign=\"top\" align=\"center\">\r\n                                        <span style=\"font-size: 14px;color: rgb(45, 51, 63);line-height: 24px;text-align: center;\">\r\n                                            <span>A nombre de<\/span>: <span>{{name}}<\/span>\r\n                                        <\/span>\r\n                                    <\/td>\r\n                                <\/tr>\r\n                                <tr>\r\n                                    <td style=\"text-align: center;vertical-align: top;padding-bottom: 8px;\" valign=\"top\" align=\"center\">\r\n                                        <span style=\"font-size: 12px;line-height: 17px;text-align: center;\">{{address}}<\/span>\r\n                                    <\/td>\r\n                                <\/tr>\r\n                                <tr>\r\n                                    <td style=\"padding: 0px;text-align: center;vertical-align: top;\" valign=\"top\" align=\"center\">\r\n                                        <a href=\"{{website}}\" style=\"text-decoration: none;color: #DA3743;\">\r\n                                            <span style=\"font-size: 14px;font-weight: normal;color: rgb(218, 55, 67);line-height: 24px;text-align: center;\" >Ir a sitio web<\/span>\r\n                                        <\/a>\r\n                                    <\/td>\r\n                                <\/tr>\r\n                            <\/table>\r\n                        <\/td>\r\n                    <\/tr>\r\n                    <tr>\r\n                        <td style=\"height: 32px;\">&nbsp;<\/td>\r\n                    <\/tr>\r\n                    <tr>\r\n                        <td bgcolor=\"#FFFFFF\" style=\"padding: 30px;\" >\r\n                            <table style=\"font-family: Arial, Helvetica, sans-serif;\">\r\n                                <tr>\r\n                                    <td style=\"font-size: 14px;\" width=\"75%\">\u00BFDudas? Ll\u00E1manos al {{phone}}<\/td>\r\n                                    <td align=\"right\" width=\"25%\">\r\n                                        <table border=\"0\" cellpadding=\"0\" cellspacing=\"0\">\r\n\t\t\t\t\t\t\t\t\t\t\t<tr>\r\n                                                {{#if facebook}}\r\n\t\t\t\t\t\t\t\t\t\t\t\t<td>    \r\n                                                    <a href=\"{{facebook}}\" style=\"color: #ffffff;\">\r\n                                                        <img src=\"https:\/\/reservandonos-cdn.s3-us-west-2.amazonaws.com\/icons\/icon-facebook.png\" alt=\"Facebook\" width=\"32\" height=\"32\" style=\"display: block;\" border=\"0\" \/>\r\n                                                    <\/a>\r\n                                                <\/td>\r\n                                                <td style=\"font-size: 0; line-height: 0;\" width=\"20\">&nbsp;<\/td>\r\n                                                {{\/if}}\r\n                                                {{#if instagram}}\r\n                                                <td style=\"font-family: Arial, sans-serif; font-size: 12px; font-weight: bold;\">\r\n                                                    <a href=\"{{instagram}}\" style=\"color: #ffffff;\">\r\n                                                        <img src=\"https:\/\/reservandonos-cdn.s3-us-west-2.amazonaws.com\/icons\/icon-instagram.png\" alt=\"Instagram\" width=\"32\" height=\"32\" style=\"display: block;\" border=\"0\" \/>\r\n                                                    <\/a>\r\n                                                <\/td>\r\n                                                <td style=\"font-size: 0; line-height: 0;\" width=\"20\">&nbsp;<\/td>\r\n                                                {{\/if}}\r\n                                                {{#if twitter}}\r\n                                                <td style=\"font-family: Arial, sans-serif; font-size: 12px; font-weight: bold;\">\r\n                                                    <a href=\"{{twitter}}\" style=\"color: #ffffff;\">\r\n                                                        <img src=\"https:\/\/reservandonos-cdn.s3-us-west-2.amazonaws.com\/icons\/icon-twitter.png\" alt=\"Twitter\" width=\"32\" height=\"32\" style=\"display: block;\" border=\"0\" \/>\r\n                                                    <\/a>\r\n                                                <\/td>\r\n                                                {{\/if}}\r\n\t\t\t\t\t\t\t\t\t\t\t<\/tr>\r\n\t\t\t\t\t\t\t\t\t\t<\/table>\r\n                                    <\/td>\r\n                                <\/tr>\r\n                            <\/table>\r\n                        <\/td>\r\n                    <\/tr>\r\n                    {{#if bannerLinkTo}}\r\n                    <tr>\r\n                        <td style=\"height: 32px;\">&nbsp;<\/td>\r\n                    <\/tr>\r\n                    <tr>\r\n                        <td>\r\n                            <span style=\"font-size: 14px;\">Gracias a esta reserva con Coca Cola y Reserv\u00E1ndonos tienes acceso a una cuponera digital con grandes promociones. Solo da clic en la imagen<\/span>\r\n                        <\/td>\r\n                    <\/tr>\r\n                    <tr>\r\n                        <td style=\"padding: 32px 0 32px 0;max-width: 100%;\" align=\"center\">\r\n                            <a href=\"{{bannerLinkTo}}\">\r\n                                <img src=\"{{bannerImageUrl}}\" alt=\"promo\" style=\"display: block;\">\r\n                            <\/a>\r\n                        <\/td>\r\n                    <\/tr>\r\n                    {{\/if}}\r\n                <\/table>\r\n            <\/td>\r\n        <\/tr>\r\n    <\/table>\r\n<\/body>\r\n\r\n<\/html>",
      "TextPart": "Hola {{name}}, gracias por reservar en {{place}}, se ha cancelado tu reservaci\u00F3n.\r\nDetalles de la reservaci\u00F3n\r\nLugar: {{place}}\r\nFecha: {{date}}\r\nHora: {{time}}\r\nPersonas: {{peopleCount}}\r\n\u00C1rea: {{smokeArea}}\r\nZona: {{zone}}\r\nForma de la mesa: {{tableType}}\r\nAltura de la mesa: {{tableHeight}}\r\nComentarios: {{notes}}\r\nPara cualquier duda o aclaraci\u00F3n por favor comun\u00EDcate al {{phone}}."
    }
  }