{
  "Template": {
    "TemplateName": "ReservationOnlineReconfirm",
    "SubjectPart": "CONFIRMA tu asistencia a {{place}}",
    "HtmlPart": "<div style=\"text-align: center;\"><div style=\"text-align:center;display:inline-block;margin:32px 0;width:100%;max-width:516px;min-width:220px;font-family:'Google Sans',Roboto,RobotoDraft,Helvetica,Arial,sans-serif;\"><div style=\"text-align: center\"> <img src=\"{{logoImage}}\" style=\"width: 250px\"></div><p style=\"color:#767676\">Hola {{name}}, gracias por reservar en {{place}}, por favor confirma tu asistencia.</p><div style=\"border:thin solid #dadce0;border-radius:8px;padding:20px;margin:0 10%\"><div style=\"font-weight:bold;margin-bottom: 10px\">Detalles de la reservaci&#243;n</div><div>Lugar: {{place}}</div><div>Fecha: {{date}}</div><div>Hora: {{time}}</div><div>Personas: {{peopleCount}}</div><div>&#193;rea: {{smokeArea}}</div><div>Zona: {{zone}}</div><div>Forma de la mesa: {{tableType}}</div><div>Altura de la mesa: {{tableHeight}}</div><div>Comentarios: {{notes}}</div></div><div> <a href=\"https://sistema.reservandonos.com/#/reservations/{{urlData}}/confirm\" style=\"background-color:#e94363;color:#fff;text-decoration:none;padding:10px 20px;margin:10px;display:inline-block;border-radius:5px\">Confirmar reservaci&#243;n</a> <a href=\"https://sistema.reservandonos.com/#/reservations/{{urlData}}/cancel\" style=\"background-color:#b7b7b7;color:#fff;text-decoration:none;padding:10px 20px;margin:10px;display:inline-block;border-radius:5px\">Cancelar reservaci&#243;n</a></div><p style=\"color:#767676\">Para cualquier duda o aclaraci&#243;n por favor comun&#237;cate al {{phone}}.</p></div></div>",
    "TextPart": "Hola {{name}}, gracias por reservar en {{place}}, por favor confirma tu asistencia.\r\nDetalles de la reservación\r\nLugar: {{place}}\r\nFecha: {{date}}\r\nHora: {{time}}\r\nPersonas: {{peopleCount}}\r\nArea: {{smokeArea}}\r\nZona: {{zone}}\r\nForma de la mesa: {{tableType}}\r\nAltura de la mesa: {{tableHeight}}\r\nComentarios: {{notes}}\r\n Para confirmar su asistencia entra en el siguiente enlace. https://sistema.reservandonos.com/#/reservations/{{urlData}}/confirm \r\n si desea cancelar la reserva entra en el siguiente enlace https://sistema.reservandonos.com/#/reservations/{{urlData}}/cancel \r\n Para cualquier duda o aclaración por favor comunícate al {{phone}}."
  }
}
