{
  "Template": {
    "TemplateName": "ReservationOfflinePending",
    "SubjectPart": "Tu reserva en {{place}} est\u00E1 EN PROCESO de revisi\u00F3n",
    "HtmlPart": "<div style=\"text-align: center;\">\r\n<div style=\"text-align:center;display:inline-block;margin:32px 0;width:100%;max-width:516px;min-width:220px;font-family:'Google Sans',Roboto,RobotoDraft,Helvetica,Arial,sans-serif;\">\r\n  <div style=\"text-align: center\">\r\n    <img src=\"{{logoImage}}\" style=\"width: 250px\">\r\n  <\/div>\r\n  <p style=\"color:#767676\">Hola {{name}}, hemos recibido tu pre-reservacion para {{place}} y estamos buscando un espacio para brindarte la mejor experiencia.<\/p>\r\n  <p style=\"color:#767676\">En un plazo aproximado de 15 minutos te confirmaremos la disponibilidad para poder garantizar tu lugar.<\/p>\r\n  <p style=\"color:#767676\">Para cualquier duda o aclaracion por favor comunicate al {{phone}}.<\/p>\r\n  {{#if sponsorCocaUrl}}\r\n  <div style=\"padding-top: 1em; text-align: center; width: 100%;\">\r\n    <img style=\"max-width: 100%; width: 70px;\" src=\"https:\/\/reservandonos-cdn.s3-us-west-2.amazonaws.com\/icons\/Coca-Cola_logo.png\" alt=\"logo coca cola\">\r\n    <div>\r\n      <a href=\"{{sponsorCocaUrl}}\" type=\"button\"\r\n         style=\"box-shadow: 0px 8px 15px rgba(0, 0, 0, 0.1); background-color: #e43d59;color: white; display: block; font-family: verdana; font-weight: bold; font-size: 1.2em; margin: auto; max-width: 200px; padding: 0.5em; border-radius: 0.5em; text-decoration: none;\">\r\n         Descargar Men\u00FA\r\n      <\/a>\r\n    <\/div>\r\n  <\/div>\r\n  {{\/if}}\r\n  {{#if bannerLinkTo}}\r\n  <p style=\"color:#767676\">Gracias a esta reserva con Coca Cola y Reserv\u00E1ndonos tienes acceso a una cuponera digital con grandes promociones. Solo da clic en la imagen<\/p>\r\n  <a href=\"{{bannerLinkTo}}\">\r\n      <img src=\"{{bannerImageUrl}}\" alt=\"promo\" style=\"display: block;max-width: 100%;\">\r\n  <\/a>\r\n  {{\/if}}\r\n<\/div>\r\n<\/div>\r\n",
    "TextPart": "Hola {{name}}, hemos recibido tu prereservación para {{place}} y estamos buscando un espacio para brindarte la mejor experiencia.\r\nEn un plazo aproximado de 15 minutos te confirmaremos la disponibilidad para poder garantizar tu lugar.\r\nPara cualquier duda o aclaración por favor comunícate al {{phone}}."
  }
}
