{
    "Template": {
        "TemplateName": "SubWillDeactivate",
        "SubjectPart": "Servicio Booker Control se detendr\u00E1 ma\u00F1ana",
        "HtmlPart": "<div style=\"text-align: center;\">\r\n    <div style=\"text-align:center;display:inline-block;margin:32px 0;width:100%;max-width:516px;min-width:220px;font-family:'Google Sans',Roboto,RobotoDraft,Helvetica,Arial,sans-serif;\">\r\n        <div style=\"text-align: center\">\r\n        <img src=\"{{bookerControlLogo}}\" style=\"width: 250px\">\r\n        <\/div>\r\n        <p style=\"color:#767676\">{{message}}<\/p>\r\n        <p style=\"color:#767676\">Para cualquier duda o aclaraci\u00F3n por favor comun\u00EDcate al {{phone}}.<\/p>\r\n    <\/div>\r\n<\/div>",
        "TextPart": "{{message}}\r\nPara cualquier duda o aclaración por favor comunícate al siguiente número{{phone}}."
    }
}